{
    "homepage": "https://superset.incubator.apache.org/",
    "description": "Apache Superset  is a modern, enterprise-ready business intelligence web application.",
    "_comment": "Categorisation: Standalone Tool",
    "license": {
        "identifier": "Apache-2.0",
        "url": "https://www.knime.com/downloads/full-license"
    },
    "version": "0.28.1",
    "url": "https://github.com/apache/incubator-superset/blob/master/LICENSE.txt",
    "depends": [
        "miniconda3",
        "imagemagick"
    ],
    "pre_install": [
        "[Environment]::SetEnvironmentVariable('PIPENV_VENV_IN_PROJECT', '1')",
        "if(-not $env:supersetpassword) {$env:supersetpassword = [string]$env:USERNAME.ToLower()}",
        "pip install pipenv cryptography",
        "pip install --upgrade setuptools pip",
        "Push-Location $dir",
        "'START \"Superset Server: Close when finished\" cmd /c \"COLOR F6 && echo. & echo.Starting Superset ... your browser will open shortly. & echo. && cd .venv/Scripts && python superset runserver -d \" && START /MIN cmd /c \"TIMEOUT 8 && start chrome http://localhost:8088\"' | Out-File 'Superset.bat' -Encoding ASCII",
        "pipenv install",
        "Pop-Location"
    ],
    "installer": {
        "script": [
            "Push-Location $dir",
            "pipenv install superset",
            ".venv/Scripts/fabmanager create-admin --app superset --username propositum --firstname Propositum --lastname Admin --email propositum@propositum --password $env:supersetpassword",
            "pipenv run python .venv/Scripts/superset db upgrade",
            "pipenv run python .venv/Scripts/superset load_examples",
            "pipenv run python .venv/Scripts/superset init",
            "$favicon = resolve-path .venv/Lib/site-packages/superset/static/assets/images/favicon.png",
            "magick convert -resize 256x256 $favicon.Path favicon.ico"
        ]
    },
    "post_install": "Remove-Item Env:\\supersetpassword",
    "uninstaller": {
        "script": [
            "Push-Location $dir",
            "pipenv --rm",
            "Pop-Location"
        ]
    },
    "notes": [
        "Default username is 'propositum'",
        "Password was the value of '$env:supersetpassword' if set, otherwise password is your Windows username (lowercase)",
        "For security, ensure you change your password on first login"
    ],
    "checkver": {
        "url": "https://pypi.org/project/superset",
        "re": "superset ([\\d.]+)"
    },
    "shortcuts": [
        [
            "Superset.bat",
            "propositum\\Superset",
            "",
            "favicon.ico"
        ]
    ],
    "autoupdate": {
        "url": "https://pypi.org/project/superset/"
    }
}
